%YAML 1.1
%TAG !u! tag:unity3d.com,2011:
--- !u!1 &8690640107305215508
GameObject:
  m_ObjectHideFlags: 0
  m_CorrespondingSourceObject: {fileID: 0}
  m_PrefabInstance: {fileID: 0}
  m_PrefabAsset: {fileID: 0}
  serializedVersion: 6
  m_Component:
  - component: {fileID: 7531893224745303014}
  m_Layer: 0
  m_Name: WorldTile
  m_TagString: Untagged
  m_Icon: {fileID: 0}
  m_NavMeshLayer: 0
  m_StaticEditorFlags: 0
  m_IsActive: 1
--- !u!4 &7531893224745303014
Transform:
  m_ObjectHideFlags: 0
  m_CorrespondingSourceObject: {fileID: 0}
  m_PrefabInstance: {fileID: 0}
  m_PrefabAsset: {fileID: 0}
  m_GameObject: {fileID: 8690640107305215508}
  m_LocalRotation: {x: 0, y: 0, z: 0, w: 1}
  m_LocalPosition: {x: 0, y: 0, z: 0}
  m_LocalScale: {x: 1, y: 1, z: 1}
  m_Children:
  - {fileID: 8573343026032634033}
  m_Father: {fileID: 0}
  m_RootOrder: 0
  m_LocalEulerAnglesHint: {x: 0, y: 0, z: 0}
--- !u!1001 &9082797300072498771
PrefabInstance:
  m_ObjectHideFlags: 0
  serializedVersion: 2
  m_Modification:
    m_TransformParent: {fileID: 7531893224745303014}
    m_Modifications:
    - target: {fileID: 645763015459581670, guid: 99e29d77f6e32624b99ec42b4ace2ae2,
        type: 3}
      propertyPath: m_Name
      value: Plane
      objectReference: {fileID: 0}
    - target: {fileID: 645763015459581666, guid: 99e29d77f6e32624b99ec42b4ace2ae2,
        type: 3}
      propertyPath: m_LocalPosition.x
      value: 0
      objectReference: {fileID: 0}
    - target: {fileID: 645763015459581666, guid: 99e29d77f6e32624b99ec42b4ace2ae2,
        type: 3}
      propertyPath: m_LocalPosition.y
      value: -1
      objectReference: {fileID: 0}
    - target: {fileID: 645763015459581666, guid: 99e29d77f6e32624b99ec42b4ace2ae2,
        type: 3}
      propertyPath: m_LocalPosition.z
      value: 0
      objectReference: {fileID: 0}
    - target: {fileID: 645763015459581666, guid: 99e29d77f6e32624b99ec42b4ace2ae2,
        type: 3}
      propertyPath: m_LocalRotation.x
      value: 0
      objectReference: {fileID: 0}
    - target: {fileID: 645763015459581666, guid: 99e29d77f6e32624b99ec42b4ace2ae2,
        type: 3}
      propertyPath: m_LocalRotation.y
      value: 0
      objectReference: {fileID: 0}
    - target: {fileID: 645763015459581666, guid: 99e29d77f6e32624b99ec42b4ace2ae2,
        type: 3}
      propertyPath: m_LocalRotation.z
      value: 0
      objectReference: {fileID: 0}
    - target: {fileID: 645763015459581666, guid: 99e29d77f6e32624b99ec42b4ace2ae2,
        type: 3}
      propertyPath: m_LocalRotation.w
      value: 1
      objectReference: {fileID: 0}
    - target: {fileID: 645763015459581666, guid: 99e29d77f6e32624b99ec42b4ace2ae2,
        type: 3}
      propertyPath: m_RootOrder
      value: 0
      objectReference: {fileID: 0}
    - target: {fileID: 645763015459581666, guid: 99e29d77f6e32624b99ec42b4ace2ae2,
        type: 3}
      propertyPath: m_LocalEulerAnglesHint.x
      value: 0
      objectReference: {fileID: 0}
    - target: {fileID: 645763015459581666, guid: 99e29d77f6e32624b99ec42b4ace2ae2,
        type: 3}
      propertyPath: m_LocalEulerAnglesHint.y
      value: 0
      objectReference: {fileID: 0}
    - target: {fileID: 645763015459581666, guid: 99e29d77f6e32624b99ec42b4ace2ae2,
        type: 3}
      propertyPath: m_LocalEulerAnglesHint.z
      value: 0
      objectReference: {fileID: 0}
    m_RemovedComponents: []
  m_SourcePrefab: {fileID: 100100000, guid: 99e29d77f6e32624b99ec42b4ace2ae2, type: 3}
--- !u!4 &8573343026032634033 stripped
Transform:
  m_CorrespondingSourceObject: {fileID: 645763015459581666, guid: 99e29d77f6e32624b99ec42b4ace2ae2,
    type: 3}
  m_PrefabInstance: {fileID: 9082797300072498771}
  m_PrefabAsset: {fileID: 0}
